module book

go 1.18

require (
	github.com/golang-migrate/migrate/v4 v4.15.2
	github.com/google/uuid v1.3.0
	github.com/jmoiron/sqlx v1.3.5
	github.com/joho/godotenv v1.4.0
	github.com/kelseyhightower/envconfig v1.4.0
	github.com/lib/pq v1.10.6
	google.golang.org/grpc v1.45.0
	google.golang.org/protobuf v1.27.1
)

require (
	github.com/golang/protobuf v1.5.2 // indirect
	github.com/hashicorp/errwrap v1.1.0 // indirect
	github.com/hashicorp/go-multierror v1.1.1 // indirect
	go.uber.org/atomic v1.7.0 // indirect
	golang.org/x/net v0.0.0-20220225172249-27dd8689420f // indirect
	golang.org/x/sys v0.0.0-20220317061510-51cd9980dadf // indirect
	golang.org/x/text v0.3.7 // indirect
	google.golang.org/genproto v0.0.0-20220314164441-57ef72a4c106 // indirect
)
